…
Let’s start with a for loop

``` r
output <- vector("list", length = 100)

for(i in 1:100){
  
  output[[i]] <- sim_mean_sd(n=30)
  
}

bind_rows(output)
```

    ## # A tibble: 100 × 2
    ##    mu_hat sigma_hat
    ##     <dbl>     <dbl>
    ##  1   2.97      3.39
    ##  2   2.50      4.04
    ##  3   2.79      3.83
    ##  4   2.44      4.29
    ##  5   2.74      4.15
    ##  6   3.04      3.42
    ##  7   3.00      4.56
    ##  8   3.78      4.46
    ##  9   2.43      3.01
    ## 10   3.67      4.41
    ## # … with 90 more rows
…
